Milena’s Journal
…
# 3.0 Examining Data ----
glimpse(translation_prod_cat_tbl)

## Rows: 71
## Columns: 2
## $ product_category_name         <chr> "agro_industria_e_comercio", "aliment...
## $ product.category.name.english <chr> "agro_industry_and_commerce", "food",...

products_tbl

## # A tibble: 32,951 x 9
##    product.id product.categor~ product.name.le~ product.descrip~
##    <chr>      <chr>                       <dbl>            <dbl>
##  1 1e9e8ef04~ perfumaria                     40              287
##  2 3aa071139~ artes                          44              276
##  3 96bd76ec8~ esporte_lazer                  46              250
##  4 cef67bcfe~ bebes                          27              261
##  5 9dc1a7de2~ utilidades_dome~               37              402
##  6 41d3672d4~ instrumentos_mu~               60              745
##  7 732bd381a~ cool_stuff                     56             1272
##  8 2548af3e6~ moveis - decora~               56              184
##  9 37cc742be~ eletrodomestico~               57              163
## 10 8c9210988~ brinquedos                     36             1156
## # ... with 32,941 more rows, and 5 more variables: product.photos.qty <dbl>,
## #   product.weight.g <dbl>, product.length.cm <dbl>, product.height.cm <dbl>,
## #   product.width.cm <dbl>
…
