Machine Learning
…
#Load data
employee_attrition_tbl <- read_csv("./00_data/09_automated_ML_h2o/datasets-1067-1925-WA_Fn-UseC_-HR-Employee-Attrition.csv")

dept_job_role_tbl <- employee_attrition_tbl %>%
  select(EmployeeNumber, Department, JobRole, PerformanceRating, Attrition)

# Business & Data Understanding: Department and Job Role ----
# Data subset
dept_job_role_tbl %>%
  group_by(Department, JobRole, Attrition)

## # A tibble: 1,470 x 5
## # Groups:   Department, JobRole, Attrition [21]
##    EmployeeNumber Department        JobRole           PerformanceRati~ Attrition
##             <dbl> <chr>             <chr>                        <dbl> <chr>    
##  1              1 Sales             Sales Executive                  3 Yes      
##  2              2 Research & Devel~ Research Scienti~                4 No       
##  3              4 Research & Devel~ Laboratory Techn~                3 Yes      
##  4              5 Research & Devel~ Research Scienti~                3 No       
##  5              7 Research & Devel~ Laboratory Techn~                3 No       
##  6              8 Research & Devel~ Laboratory Techn~                3 No       
##  7             10 Research & Devel~ Laboratory Techn~                4 No       
##  8             11 Research & Devel~ Laboratory Techn~                4 No       
##  9             12 Research & Devel~ Manufacturing Di~                4 No       
## 10             13 Research & Devel~ Healthcare Repre~                3 No       
## # ... with 1,460 more rows
…
dept_job_role_tbl %>%
  count(Department, JobRole, Attrition) %>%
  count_to_pct(Department, JobRole)

## # A tibble: 21 x 5
##    Department             JobRole                   Attrition     n    pct
##    <chr>                  <chr>                     <chr>     <int>  <dbl>
##  1 Human Resources        Human Resources           No           40 0.769 
##  2 Human Resources        Human Resources           Yes          12 0.231 
##  3 Human Resources        Manager                   No           11 1     
##  4 Research & Development Healthcare Representative No          122 0.931 
##  5 Research & Development Healthcare Representative Yes           9 0.0687
##  6 Research & Development Laboratory Technician     No          197 0.761 
##  7 Research & Development Laboratory Technician     Yes          62 0.239 
##  8 Research & Development Manager                   No           51 0.944 
##  9 Research & Development Manager                   Yes           3 0.0556
## 10 Research & Development Manufacturing Director    No          135 0.931 
## # ... with 11 more rows
…
# Data understanding -----
path_data_definitions <- "./00_data/09_automated_ML_h2o/data_definitions.xlsx"
definitions_raw_tbl   <- read_excel(path_data_definitions, sheet = 1, col_names = FALSE)

# Descriptive Features
employee_attrition_tbl %>% select(Age, DistanceFromHome, Gender, MaritalStatus, NumCompaniesWorked, Over18)

## # A tibble: 1,470 x 6
##      Age DistanceFromHome Gender MaritalStatus NumCompaniesWorked Over18
##    <dbl>            <dbl> <chr>  <chr>                      <dbl> <chr> 
##  1    41                1 Female Single                         8 Y     
##  2    49                8 Male   Married                        1 Y     
##  3    37                2 Male   Single                         6 Y     
##  4    33                3 Female Married                        1 Y     
##  5    27                2 Male   Married                        9 Y     
##  6    32                2 Male   Single                         0 Y     
##  7    59                3 Female Married                        4 Y     
##  8    30               24 Male   Divorced                       1 Y     
##  9    38               23 Male   Single                         0 Y     
## 10    36               27 Male   Married                        6 Y     
## # ... with 1,460 more rows

# Employment Features
employee_attrition_tbl %>% select(Department, EmployeeCount, EmployeeNumber, JobInvolvement, JobLevel, JobRole, JobSatisfaction)

## # A tibble: 1,470 x 7
##    Department EmployeeCount EmployeeNumber JobInvolvement JobLevel JobRole
##    <chr>              <dbl>          <dbl>          <dbl>    <dbl> <chr>  
##  1 Sales                  1              1              3        2 Sales ~
##  2 Research ~             1              2              2        2 Resear~
##  3 Research ~             1              4              2        1 Labora~
##  4 Research ~             1              5              3        1 Resear~
##  5 Research ~             1              7              3        1 Labora~
##  6 Research ~             1              8              3        1 Labora~
##  7 Research ~             1             10              4        1 Labora~
##  8 Research ~             1             11              3        1 Labora~
##  9 Research ~             1             12              2        3 Manufa~
## 10 Research ~             1             13              3        2 Health~
## # ... with 1,460 more rows, and 1 more variable: JobSatisfaction <dbl>

# Compensation Features
employee_attrition_tbl %>% select(DailyRate, HourlyRate, MonthlyIncome, MonthlyRate, PercentSalaryHike, StockOptionLevel)

## # A tibble: 1,470 x 6
##    DailyRate HourlyRate MonthlyIncome MonthlyRate PercentSalaryHi~
##        <dbl>      <dbl>         <dbl>       <dbl>            <dbl>
##  1      1102         94          5993       19479               11
##  2       279         61          5130       24907               23
##  3      1373         92          2090        2396               15
##  4      1392         56          2909       23159               11
##  5       591         40          3468       16632               12
##  6      1005         79          3068       11864               13
##  7      1324         81          2670        9964               20
##  8      1358         67          2693       13335               22
##  9       216         44          9526        8787               21
## 10      1299         94          5237       16577               13
## # ... with 1,460 more rows, and 1 more variable: StockOptionLevel <dbl>

# Survery Results
employee_attrition_tbl %>% select(EnvironmentSatisfaction, JobSatisfaction, RelationshipSatisfaction, WorkLifeBalance)

## # A tibble: 1,470 x 4
##    EnvironmentSatisfacti~ JobSatisfaction RelationshipSatisfact~ WorkLifeBalance
##                     <dbl>           <dbl>                  <dbl>           <dbl>
##  1                      2               4                      1               1
##  2                      3               2                      4               3
##  3                      4               3                      2               3
##  4                      4               3                      3               3
##  5                      1               2                      4               3
##  6                      4               4                      3               2
##  7                      3               1                      1               2
##  8                      4               3                      2               3
##  9                      4               3                      2               3
## 10                      3               3                      2               2
## # ... with 1,460 more rows

# Performance Data
employee_attrition_tbl %>% select(JobInvolvement, PerformanceRating)

## # A tibble: 1,470 x 2
##    JobInvolvement PerformanceRating
##             <dbl>             <dbl>
##  1              3                 3
##  2              2                 4
##  3              2                 3
##  4              3                 3
##  5              3                 3
##  6              3                 3
##  7              4                 4
##  8              3                 4
##  9              2                 4
## 10              3                 3
## # ... with 1,460 more rows

# Work-Life Features
employee_attrition_tbl %>% select(BusinessTravel, OverTime)

## # A tibble: 1,470 x 2
##    BusinessTravel    OverTime
##    <chr>             <chr>   
##  1 Travel_Rarely     Yes     
##  2 Travel_Frequently No      
##  3 Travel_Rarely     Yes     
##  4 Travel_Frequently Yes     
##  5 Travel_Rarely     No      
##  6 Travel_Frequently No      
##  7 Travel_Rarely     Yes     
##  8 Travel_Rarely     No      
##  9 Travel_Frequently No      
## 10 Travel_Rarely     No      
## # ... with 1,460 more rows

# Training & Education
employee_attrition_tbl %>% select(Education, EducationField, TrainingTimesLastYear)

## # A tibble: 1,470 x 3
##    Education EducationField TrainingTimesLastYear
##        <dbl> <chr>                          <dbl>
##  1         2 Life Sciences                      0
##  2         1 Life Sciences                      3
##  3         2 Other                              3
##  4         4 Life Sciences                      3
##  5         1 Medical                            3
##  6         2 Life Sciences                      2
##  7         3 Medical                            3
##  8         1 Life Sciences                      2
##  9         3 Life Sciences                      2
## 10         3 Medical                            3
## # ... with 1,460 more rows

# Time-Based Features
employee_attrition_tbl %>% select(TotalWorkingYears, YearsAtCompany, YearsInCurrentRole, YearsSinceLastPromotion, YearsWithCurrManager)

## # A tibble: 1,470 x 5
##    TotalWorkingYea~ YearsAtCompany YearsInCurrentR~ YearsSinceLastP~
##               <dbl>          <dbl>            <dbl>            <dbl>
##  1                8              6                4                0
##  2               10             10                7                1
##  3                7              0                0                0
##  4                8              8                7                3
##  5                6              2                2                2
##  6                8              7                7                3
##  7               12              1                0                0
##  8                1              1                0                0
##  9               10              9                7                1
## 10               17              7                7                7
## # ... with 1,460 more rows, and 1 more variable: YearsWithCurrManager <dbl>
…
# We want to see how it performs for the testing data frame
test_tbl

## # A tibble: 2,857 x 23
##       sku national_inv lead_time in_transit_qty forecast_3_month
##     <dbl>        <dbl>     <dbl>          <dbl>            <dbl>
##  1 1.12e6            7         8              0                0
##  2 1.12e6            0        12              0              163
##  3 1.13e6          150         8              0              325
##  4 1.13e6            0         8              0                3
##  5 1.13e6            3         3              0               16
##  6 1.13e6          -62         8              0              120
##  7 1.13e6            0         8              0                2
##  8 1.13e6           11         2             10               27
##  9 1.13e6            1         2              4                4
## 10 1.14e6           -1         8              0                9
## # ... with 2,847 more rows, and 18 more variables: forecast_6_month <dbl>,
## #   forecast_9_month <dbl>, sales_1_month <dbl>, sales_3_month <dbl>,
## #   sales_6_month <dbl>, sales_9_month <dbl>, min_bank <dbl>,
## #   potential_issue <fct>, pieces_past_due <dbl>, perf_6_month_avg <dbl>,
## #   perf_12_month_avg <dbl>, local_bo_qty <dbl>, deck_risk <fct>,
## #   oe_constraint <fct>, ppap_risk <fct>, stop_auto_buy <fct>, rev_stop <fct>,
## #   went_on_backorder <fct>
…
